Samiha’s Website - Virginia Election Project
…
Calculating percentage of the vote

prez_2020 %>% 
  mutate(
    biden_pct = biden/total_votes_2021_prez
  )

# A tibble: 134 × 5
   locality           biden trump total_votes_2021_prez biden_pct
   <chr>              <dbl> <dbl>                 <dbl>     <dbl>
 1 Accomack County     7578  9172                 16962     0.447
 2 Albemarle County   42466 20804                 64657     0.657
 3 Alexandria City    66240 14544                 82508     0.803
 4 Alleghany County    2243  5859                  8203     0.273
 5 Amelia County       2411  5390                  7893     0.305
 6 Amherst County      5672 11041                 17005     0.334
 7 Appomattox County   2418  6702                  9268     0.261
 8 Arlington County  105344 22318                130699     0.806
 9 Augusta County     10840 30714                 42278     0.256
10 Bath County          646  1834                  2501     0.258
# … with 124 more rows

Now let’s do some rounding and move that decimal point

prez_2020 %>% 
  mutate(
    biden_pct = janitor::round_half_up(biden / total_votes_2021_prez * 100, 1)
  )

# A tibble: 134 × 5
   locality           biden trump total_votes_2021_prez biden_pct
   <chr>              <dbl> <dbl>                 <dbl>     <dbl>
 1 Accomack County     7578  9172                 16962      44.7
 2 Albemarle County   42466 20804                 64657      65.7
 3 Alexandria City    66240 14544                 82508      80.3
 4 Alleghany County    2243  5859                  8203      27.3
 5 Amelia County       2411  5390                  7893      30.5
 6 Amherst County      5672 11041                 17005      33.4
 7 Appomattox County   2418  6702                  9268      26.1
 8 Arlington County  105344 22318                130699      80.6
 9 Augusta County     10840 30714                 42278      25.6
10 Bath County          646  1834                  2501      25.8
# … with 124 more rows
…
Reshaping the data so that it’s easier to use

gov_2021 <- gov_2021 %>% 
  filter(ballot_name %in% c("Glenn A. Youngkin", "Terry R. McAuliffe")) %>% 
  select(-locality_code,
         -political_party)
  
gov_2021

# A tibble: 266 × 4
   locality_name    ballot_name        votes percentage
   <chr>            <chr>              <int> <chr>     
 1 ACCOMACK COUNTY  Glenn A. Youngkin   7878 61.08%    
 2 ACCOMACK COUNTY  Terry R. McAuliffe  4948 38.37%    
 3 ALBEMARLE COUNTY Glenn A. Youngkin  19141 37.21%    
 4 ALBEMARLE COUNTY Terry R. McAuliffe 31919 62.05%    
 5 ALEXANDRIA CITY  Glenn A. Youngkin  14013 24.02%    
 6 ALEXANDRIA CITY  Terry R. McAuliffe 43866 75.20%    
 7 ALLEGHANY COUNTY Glenn A. Youngkin   4530 74.52%    
 8 ALLEGHANY COUNTY Terry R. McAuliffe  1518 24.97%    
 9 AMELIA COUNTY    Glenn A. Youngkin   4720 74.19%    
10 AMELIA COUNTY    Terry R. McAuliffe  1617 25.42%    
# … with 256 more rows

gov_2021_wide <- gov_2021 %>% 
  pivot_wider(names_from = ballot_name, values_from = c(votes, percentage))

gov_2021_wide

# A tibble: 133 × 5
   locality_name     `votes_Glenn A. Youngkin` votes_Terry R. …¹ perce…² perce…³
   <chr>                                 <int>             <int> <chr>   <chr>  
 1 ACCOMACK COUNTY                        7878              4948 61.08%  38.37% 
 2 ALBEMARLE COUNTY                      19141             31919 37.21%  62.05% 
 3 ALEXANDRIA CITY                       14013             43866 24.02%  75.20% 
 4 ALLEGHANY COUNTY                       4530              1518 74.52%  24.97% 
 5 AMELIA COUNTY                          4720              1617 74.19%  25.42% 
 6 AMHERST COUNTY                         9731              3897 71.00%  28.43% 
 7 APPOMATTOX COUNTY                      5971              1438 80.26%  19.33% 
 8 ARLINGTON COUNTY                      21548             73013 22.63%  76.67% 
 9 AUGUSTA COUNTY                        26196              7231 77.93%  21.51% 
10 BATH COUNTY                            1539               396 79.04%  20.34% 
# … with 123 more rows, and abbreviated variable names
#   ¹​`votes_Terry R. McAuliffe`, ²​`percentage_Glenn A. Youngkin`,
#   ³​`percentage_Terry R. McAuliffe`
…
Perfect. Problem solved.

Joining the Two Data Sets

gov_2021_wide

# A tibble: 133 × 5
   locality_name     youngkin mcauliffe pct_youngkin pct_mcauliffe
   <chr>                <int>     <int>        <dbl>         <dbl>
 1 ACCOMACK COUNTY       7878      4948         61.1          38.4
 2 ALBEMARLE COUNTY     19141     31919         37.2          62.0
 3 ALEXANDRIA CITY      14013     43866         24.0          75.2
 4 ALLEGHANY COUNTY      4530      1518         74.5          25.0
 5 AMELIA COUNTY         4720      1617         74.2          25.4
 6 AMHERST COUNTY        9731      3897         71            28.4
 7 APPOMATTOX COUNTY     5971      1438         80.3          19.3
 8 ARLINGTON COUNTY     21548     73013         22.6          76.7
 9 AUGUSTA COUNTY       26196      7231         77.9          21.5
10 BATH COUNTY           1539       396         79.0          20.3
# … with 123 more rows

prez_2020

# A tibble: 134 × 6
   locality           biden trump total_votes_2021_prez biden_pct trump_pct
   <chr>              <dbl> <dbl>                 <dbl>     <dbl>     <dbl>
 1 Accomack County     7578  9172                 16962      44.7      54.1
 2 Albemarle County   42466 20804                 64657      65.7      32.2
 3 Alexandria City    66240 14544                 82508      80.3      17.6
 4 Alleghany County    2243  5859                  8203      27.3      71.4
 5 Amelia County       2411  5390                  7893      30.6      68.3
 6 Amherst County      5672 11041                 17005      33.4      64.9
 7 Appomattox County   2418  6702                  9268      26.1      72.3
 8 Arlington County  105344 22318                130699      80.6      17.1
 9 Augusta County     10840 30714                 42278      25.6      72.6
10 Bath County          646  1834                  2501      25.8      73.3
# … with 124 more rows

Cleaning up the data sets to get them ready for the join

prez_2020 <- prez_2020 %>% 
  mutate(
    locality = str_to_upper(locality)
  ) %>% 
  select(-total_votes_2021_prez)

prez_2020

# A tibble: 134 × 5
   locality           biden trump biden_pct trump_pct
   <chr>              <dbl> <dbl>     <dbl>     <dbl>
 1 ACCOMACK COUNTY     7578  9172      44.7      54.1
 2 ALBEMARLE COUNTY   42466 20804      65.7      32.2
 3 ALEXANDRIA CITY    66240 14544      80.3      17.6
 4 ALLEGHANY COUNTY    2243  5859      27.3      71.4
 5 AMELIA COUNTY       2411  5390      30.6      68.3
 6 AMHERST COUNTY      5672 11041      33.4      64.9
 7 APPOMATTOX COUNTY   2418  6702      26.1      72.3
 8 ARLINGTON COUNTY  105344 22318      80.6      17.1
 9 AUGUSTA COUNTY     10840 30714      25.6      72.6
10 BATH COUNTY          646  1834      25.8      73.3
# … with 124 more rows
…
#save results to file for next step
saveRDS(joined_vacomparison, here("processed_data", "joined_vacomparison.rds"))
write_csv(joined_vacomparison, here("processed_data", "joined_vacomparison.csv"))

Analysis: Comparing the 2020 VA National & Local Election Results

joined_vacomparison %>% 
  mutate(
    mc_overperform = pct_mcauliffe - biden_pct,
    mc_overperform_5 <- if_else(mc_overperform < -5, "Yes", "No")
  )

# A tibble: 133 × 11
   locality  biden trump biden…¹ trump…² young…³ mcaul…⁴ pct_y…⁵ pct_m…⁶ mc_ov…⁷
   <chr>     <dbl> <dbl>   <dbl>   <dbl>   <int>   <int>   <dbl>   <dbl>   <dbl>
 1 ACCOMAC…   7578  9172    44.7    54.1    7878    4948    61.1    38.4   -6.31
 2 ALBEMAR…  42466 20804    65.7    32.2   19141   31919    37.2    62.0   -3.63
 3 ALEXAND…  66240 14544    80.3    17.6   14013   43866    24.0    75.2   -5.08
 4 ALLEGHA…   2243  5859    27.3    71.4    4530    1518    74.5    25.0   -2.37
 5 AMELIA …   2411  5390    30.6    68.3    4720    1617    74.2    25.4   -5.13
 6 AMHERST…   5672 11041    33.4    64.9    9731    3897    71      28.4   -4.92
 7 APPOMAT…   2418  6702    26.1    72.3    5971    1438    80.3    19.3   -6.76
 8 ARLINGT… 105344 22318    80.6    17.1   21548   73013    22.6    76.7   -3.93
 9 AUGUSTA…  10840 30714    25.6    72.6   26196    7231    77.9    21.5   -4.13
10 BATH CO…    646  1834    25.8    73.3    1539     396    79.0    20.3   -5.49
# … with 123 more rows, 1 more variable: `mc_overperform_5 <- ...` <chr>, and
#   abbreviated variable names ¹​biden_pct, ²​trump_pct, ³​youngkin, ⁴​mcauliffe,
#   ⁵​pct_youngkin, ⁶​pct_mcauliffe, ⁷​mc_overperform
…
